{
  "response": {
    "status": "ok",
    "userTier": "developer",
    "total": 150,
    "startIndex": 1,
    "pageSize": 10,
    "currentPage": 1,
    "pages": 15,
    "orderBy": "newest",
    "results": [
      {
        "id": "commentisfree\/2017\/jan\/08\/theresa-may-test-prime-minister-six-months-brexit",
        "type": "article",
        "sectionId": "commentisfree",
        "sectionName": "Opinion",
        "webPublicationDate": "2017-01-08T18:36:55Z",
        "webTitle": "Ignore this phoney war. Theresa May\u2019s test is yet to come | Matthew d\u2019Ancona",
        "webUrl": "https:\/\/www.theguardian.com\/commentisfree\/2017\/jan\/08\/theresa-may-test-prime-minister-six-months-brexit",
        "apiUrl": "https:\/\/content.guardianapis.com\/commentisfree\/2017\/jan\/08\/theresa-may-test-prime-minister-six-months-brexit",
        "isHosted": false
      },
      {
        "id": "world\/2017\/jan\/08\/akbar-hashemi-rafsanjani-obituary",
        "type": "article",
        "sectionId": "world",
        "sectionName": "World news",
        "webPublicationDate": "2017-01-08T18:35:12Z",
        "webTitle": "Akbar Hashemi Rafsanjani obituary",
        "webUrl": "https:\/\/www.theguardian.com\/world\/2017\/jan\/08\/akbar-hashemi-rafsanjani-obituary",
        "apiUrl": "https:\/\/content.guardianapis.com\/world\/2017\/jan\/08\/akbar-hashemi-rafsanjani-obituary",
        "isHosted": false
      },
      {
        "id": "politics\/2017\/jan\/08\/why-might-an-israeli-diplomat-believe-alan-duncan-needs-taking-down",
        "type": "article",
        "sectionId": "politics",
        "sectionName": "Politics",
        "webPublicationDate": "2017-01-08T18:33:04Z",
        "webTitle": "Why might an Israeli diplomat believe Alan Duncan needs 'taking down'?",
        "webUrl": "https:\/\/www.theguardian.com\/politics\/2017\/jan\/08\/why-might-an-israeli-diplomat-believe-alan-duncan-needs-taking-down",
        "apiUrl": "https:\/\/content.guardianapis.com\/politics\/2017\/jan\/08\/why-might-an-israeli-diplomat-believe-alan-duncan-needs-taking-down",
        "isHosted": false
      },
      {
        "id": "football\/live\/2017\/jan\/08\/tottenham-hotspur-v-aston-villa-fa-cup-third-round-live",
        "type": "liveblog",
        "sectionId": "football",
        "sectionName": "Football",
        "webPublicationDate": "2017-01-08T18:10:29Z",
        "webTitle": "Tottenham Hotspur v Aston Villa: FA Cup third round \u2013 live!",
        "webUrl": "https:\/\/www.theguardian.com\/football\/live\/2017\/jan\/08\/tottenham-hotspur-v-aston-villa-fa-cup-third-round-live",
        "apiUrl": "https:\/\/content.guardianapis.com\/football\/live\/2017\/jan\/08\/tottenham-hotspur-v-aston-villa-fa-cup-third-round-live",
        "isHosted": false
      },
      {
        "id": "football\/2017\/jan\/08\/tottenham-hotspur-aston-villa-fa-cup-match-report",
        "type": "article",
        "sectionId": "football",
        "sectionName": "Football",
        "webPublicationDate": "2017-01-08T18:08:00Z",
        "webTitle": "Son Heung-min secures Tottenham\u2019s FA Cup passage against Aston Villa",
        "webUrl": "https:\/\/www.theguardian.com\/football\/2017\/jan\/08\/tottenham-hotspur-aston-villa-fa-cup-match-report",
        "apiUrl": "https:\/\/content.guardianapis.com\/football\/2017\/jan\/08\/tottenham-hotspur-aston-villa-fa-cup-match-report",
        "isHosted": false
      },
      {
        "id": "football\/2017\/jan\/08\/jurgen-klopp-liverpool-plymouth-argyle-draw-fa-cup",
        "type": "article",
        "sectionId": "football",
        "sectionName": "Football",
        "webPublicationDate": "2017-01-08T17:59:51Z",
        "webTitle": "J\u00fcrgen Klopp does not regret Liverpool\u2019s youngest lineup in Argyle FA Cup draw",
        "webUrl": "https:\/\/www.theguardian.com\/football\/2017\/jan\/08\/jurgen-klopp-liverpool-plymouth-argyle-draw-fa-cup",
        "apiUrl": "https:\/\/content.guardianapis.com\/football\/2017\/jan\/08\/jurgen-klopp-liverpool-plymouth-argyle-draw-fa-cup",
        "isHosted": false
      },
      {
        "id": "politics\/2017\/jan\/08\/theresa-may-trumps-groping-remarks-were-unacceptable",
        "type": "article",
        "sectionId": "politics",
        "sectionName": "Politics",
        "webPublicationDate": "2017-01-08T17:55:32Z",
        "webTitle": "Theresa May: Trump's groping remarks were unacceptable",
        "webUrl": "https:\/\/www.theguardian.com\/politics\/2017\/jan\/08\/theresa-may-trumps-groping-remarks-were-unacceptable",
        "apiUrl": "https:\/\/content.guardianapis.com\/politics\/2017\/jan\/08\/theresa-may-trumps-groping-remarks-were-unacceptable",
        "isHosted": false
      },
      {
        "id": "world\/2017\/jan\/08\/iran-former-president-rafsanjani-dies-aged-82",
        "type": "article",
        "sectionId": "world",
        "sectionName": "World news",
        "webPublicationDate": "2017-01-08T17:53:06Z",
        "webTitle": "Iran's former president Rafsanjani dies aged 82",
        "webUrl": "https:\/\/www.theguardian.com\/world\/2017\/jan\/08\/iran-former-president-rafsanjani-dies-aged-82",
        "apiUrl": "https:\/\/content.guardianapis.com\/world\/2017\/jan\/08\/iran-former-president-rafsanjani-dies-aged-82",
        "isHosted": false
      },
      {
        "id": "sport\/2017\/jan\/08\/augusta-kate-willie-mullins-ruby-walsh-naas-ant-and-dec",
        "type": "article",
        "sectionId": "sport",
        "sectionName": "Sport",
        "webPublicationDate": "2017-01-08T17:47:41Z",
        "webTitle": "Augusta Kate\u2019s last-flight fall caps disappointing day for Willie Mullins",
        "webUrl": "https:\/\/www.theguardian.com\/sport\/2017\/jan\/08\/augusta-kate-willie-mullins-ruby-walsh-naas-ant-and-dec",
        "apiUrl": "https:\/\/content.guardianapis.com\/sport\/2017\/jan\/08\/augusta-kate-willie-mullins-ruby-walsh-naas-ant-and-dec",
        "isHosted": false
      },
      {
        "id": "society\/2017\/jan\/08\/the-crisis-of-disabled-millennials-it-feels-hopeless",
        "type": "article",
        "sectionId": "society",
        "sectionName": "Society",
        "webPublicationDate": "2017-01-08T17:30:23Z",
        "webTitle": "The crisis of disabled millennials: 'It feels hopeless'",
        "webUrl": "https:\/\/www.theguardian.com\/society\/2017\/jan\/08\/the-crisis-of-disabled-millennials-it-feels-hopeless",
        "apiUrl": "https:\/\/content.guardianapis.com\/society\/2017\/jan\/08\/the-crisis-of-disabled-millennials-it-feels-hopeless",
        "isHosted": false
      }
    ]
  }
}
